module rest-api

go 1.18

require (
	github.com/BurntSushi/toml v1.1.0
	github.com/asaskevich/govalidator v0.0.0-20210307081110-f21760c49a8d
	github.com/go-ozzo/ozzo-validation v3.6.0+incompatible
	github.com/gorilla/mux v1.8.0
	github.com/lib/pq v1.10.6
	github.com/sirupsen/logrus v1.8.1
	github.com/stretchr/testify v1.7.1
	golang.org/x/crypto v0.0.0-20220525230936-793ad666bf5e
)

require (
	github.com/davecgh/go-spew v1.1.1 // indirect
	github.com/felixge/httpsnoop v1.0.1 // indirect
	github.com/google/uuid v1.3.0 // indirect
	github.com/gorilla/handlers v1.5.1 // indirect
	github.com/gorilla/securecookie v1.1.1 // indirect
	github.com/gorilla/sessions v1.2.1 // indirect
	github.com/pmezard/go-difflib v1.0.0 // indirect
	golang.org/x/sys v0.0.0-20220520151302-bc2c85ada10a // indirect
	gopkg.in/yaml.v3 v3.0.0-20200313102051-9f266ea9e77c // indirect
)
