mode: set
task3/main.go:8.14,10.2 0 0
task3/main.go:12.47,15.27 3 1
task3/main.go:21.2,21.15 1 1
task3/main.go:15.27,16.31 1 1
task3/main.go:16.31,19.4 2 1
task3/main.go:24.38,29.35 4 1
task3/main.go:32.2,33.10 2 1
task3/main.go:29.35,31.3 1 1
